%YAML 1.1
%TAG !u! tag:unity3d.com,2011:
--- !u!1 &6151882360822667211
GameObject:
  m_ObjectHideFlags: 0
  m_CorrespondingSourceObject: {fileID: 0}
  m_PrefabInstance: {fileID: 0}
  m_PrefabAsset: {fileID: 0}
  serializedVersion: 6
  m_Component:
  - component: {fileID: 6151882360822667253}
  - component: {fileID: 6151882360822667254}
  - component: {fileID: 2325838058470223013}
  m_Layer: 0
  m_Name: LevelManager
  m_TagString: Untagged
  m_Icon: {fileID: 0}
  m_NavMeshLayer: 0
  m_StaticEditorFlags: 0
  m_IsActive: 1
--- !u!4 &6151882360822667253
Transform:
  m_ObjectHideFlags: 0
  m_CorrespondingSourceObject: {fileID: 0}
  m_PrefabInstance: {fileID: 0}
  m_PrefabAsset: {fileID: 0}
  m_GameObject: {fileID: 6151882360822667211}
  m_LocalRotation: {x: 0, y: 0, z: 0, w: 1}
  m_LocalPosition: {x: 0, y: 0, z: 0}
  m_LocalScale: {x: 1, y: 1, z: 1}
  m_Children: []
  m_Father: {fileID: 0}
  m_RootOrder: 0
  m_LocalEulerAnglesHint: {x: 0, y: 0, z: 0}
--- !u!114 &6151882360822667254
MonoBehaviour:
  m_ObjectHideFlags: 0
  m_CorrespondingSourceObject: {fileID: 0}
  m_PrefabInstance: {fileID: 0}
  m_PrefabAsset: {fileID: 0}
  m_GameObject: {fileID: 6151882360822667211}
  m_Enabled: 1
  m_EditorHideFlags: 0
  m_Script: {fileID: 11500000, guid: e744f5c7be98cfa4d87f661d22df4f5a, type: 3}
  m_Name: 
  m_EditorClassIdentifier: 
  LevelCount: 7
--- !u!114 &2325838058470223013
MonoBehaviour:
  m_ObjectHideFlags: 0
  m_CorrespondingSourceObject: {fileID: 0}
  m_PrefabInstance: {fileID: 0}
  m_PrefabAsset: {fileID: 0}
  m_GameObject: {fileID: 6151882360822667211}
  m_Enabled: 1
  m_EditorHideFlags: 0
  m_Script: {fileID: 11500000, guid: 14a9f02447b69ee4ea083b5536920574, type: 3}
  m_Name: 
  m_EditorClassIdentifier: 
  armPrefabRefs:
  - {fileID: 4123065349049270284, guid: b399b33e60c081f4b8f1a23554537e09, type: 3}
  - {fileID: 4123065349049270284, guid: 43d3a914b58d9b848ba2ed459b4599fd, type: 3}
  - {fileID: 7332071016989351689, guid: 976f65b25d14a694aa20006e4f66b37e, type: 3}
  - {fileID: 4590593231366184544, guid: 3e4905ed14ed9c04ab6d23c117d09fbd, type: 3}
  - {fileID: 3401608877490074372, guid: bd980beabbce73a40be200523ff9b07d, type: 3}
  - {fileID: 4123065349049270284, guid: 5e09873c80ad71b48ae56199fe8f8b62, type: 3}
