%YAML 1.1
%TAG !u! tag:unity3d.com,2011:
--- !u!29 &1
OcclusionCullingSettings:
  m_ObjectHideFlags: 0
  serializedVersion: 2
  m_OcclusionBakeSettings:
    smallestOccluder: 5
    smallestHole: 0.25
    backfaceThreshold: 100
  m_SceneGUID: 00000000000000000000000000000000
  m_OcclusionCullingData: {fileID: 0}
--- !u!104 &2
RenderSettings:
  m_ObjectHideFlags: 0
  serializedVersion: 9
  m_Fog: 0
  m_FogColor: {r: 0.5, g: 0.5, b: 0.5, a: 1}
  m_FogMode: 3
  m_FogDensity: 0.01
  m_LinearFogStart: 0
  m_LinearFogEnd: 300
  m_AmbientSkyColor: {r: 0.212, g: 0.227, b: 0.259, a: 1}
  m_AmbientEquatorColor: {r: 0.114, g: 0.125, b: 0.133, a: 1}
  m_AmbientGroundColor: {r: 0.047, g: 0.043, b: 0.035, a: 1}
  m_AmbientIntensity: 1
  m_AmbientMode: 0
  m_SubtractiveShadowColor: {r: 0.42, g: 0.478, b: 0.627, a: 1}
  m_SkyboxMaterial: {fileID: 2100000, guid: 8b68cb05ef1e1954285bc987d1ae2110, type: 2}
  m_HaloStrength: 0.5
  m_FlareStrength: 1
  m_FlareFadeSpeed: 3
  m_HaloTexture: {fileID: 0}
  m_SpotCookie: {fileID: 10001, guid: 0000000000000000e000000000000000, type: 0}
  m_DefaultReflectionMode: 0
  m_DefaultReflectionResolution: 128
  m_ReflectionBounces: 1
  m_ReflectionIntensity: 1
  m_CustomReflection: {fileID: 0}
  m_Sun: {fileID: 705507994}
  m_IndirectSpecularColor: {r: 0, g: 0, b: 0, a: 1}
  m_UseRadianceAmbientProbe: 0
--- !u!157 &3
LightmapSettings:
  m_ObjectHideFlags: 0
  serializedVersion: 11
  m_GIWorkflowMode: 1
  m_GISettings:
    serializedVersion: 2
    m_BounceScale: 1
    m_IndirectOutputScale: 1
    m_AlbedoBoost: 1
    m_EnvironmentLightingMode: 0
    m_EnableBakedLightmaps: 1
    m_EnableRealtimeLightmaps: 0
  m_LightmapEditorSettings:
    serializedVersion: 12
    m_Resolution: 2
    m_BakeResolution: 40
    m_AtlasSize: 1024
    m_AO: 0
    m_AOMaxDistance: 1
    m_CompAOExponent: 1
    m_CompAOExponentDirect: 0
    m_ExtractAmbientOcclusion: 0
    m_Padding: 2
    m_LightmapParameters: {fileID: 0}
    m_LightmapsBakeMode: 1
    m_TextureCompression: 1
    m_FinalGather: 0
    m_FinalGatherFiltering: 1
    m_FinalGatherRayCount: 256
    m_ReflectionCompression: 2
    m_MixedBakeMode: 2
    m_BakeBackend: 1
    m_PVRSampling: 1
    m_PVRDirectSampleCount: 32
    m_PVRSampleCount: 500
    m_PVRBounces: 2
    m_PVREnvironmentSampleCount: 500
    m_PVREnvironmentReferencePointCount: 2048
    m_PVRFilteringMode: 2
    m_PVRDenoiserTypeDirect: 0
    m_PVRDenoiserTypeIndirect: 0
    m_PVRDenoiserTypeAO: 0
    m_PVRFilterTypeDirect: 0
    m_PVRFilterTypeIndirect: 0
    m_PVRFilterTypeAO: 0
    m_PVREnvironmentMIS: 0
    m_PVRCulling: 1
    m_PVRFilteringGaussRadiusDirect: 1
    m_PVRFilteringGaussRadiusIndirect: 5
    m_PVRFilteringGaussRadiusAO: 2
    m_PVRFilteringAtrousPositionSigmaDirect: 0.5
    m_PVRFilteringAtrousPositionSigmaIndirect: 2
    m_PVRFilteringAtrousPositionSigmaAO: 1
    m_ExportTrainingData: 0
    m_TrainingDataDestination: TrainingData
    m_LightProbeSampleCountMultiplier: 4
  m_LightingDataAsset: {fileID: 0}
  m_UseShadowmask: 1
--- !u!196 &4
NavMeshSettings:
  serializedVersion: 2
  m_ObjectHideFlags: 0
  m_BuildSettings:
    serializedVersion: 2
    agentTypeID: 0
    agentRadius: 0.5
    agentHeight: 2
    agentSlope: 45
    agentClimb: 0.4
    ledgeDropHeight: 0
    maxJumpAcrossDistance: 0
    minRegionArea: 2
    manualCellSize: 0
    cellSize: 0.16666667
    manualTileSize: 0
    tileSize: 256
    accuratePlacement: 0
    debug:
      m_Flags: 0
  m_NavMeshData: {fileID: 0}
--- !u!108 &705507994 stripped
Light:
  m_CorrespondingSourceObject: {fileID: 5296355294942308671, guid: 4dac7e47af419b14b8db82c37ec8b362,
    type: 3}
  m_PrefabInstance: {fileID: 5296355295579511717}
  m_PrefabAsset: {fileID: 0}
--- !u!1001 &1502989212
PrefabInstance:
  m_ObjectHideFlags: 0
  serializedVersion: 2
  m_Modification:
    m_TransformParent: {fileID: 0}
    m_Modifications:
    - target: {fileID: 6532829731298936360, guid: 8fd89f9b8fcbcda4cb6f5396aa500a2d,
        type: 3}
      propertyPath: m_Name
      value: SpawnGroupManager
      objectReference: {fileID: 0}
    - target: {fileID: 6532829731298936362, guid: 8fd89f9b8fcbcda4cb6f5396aa500a2d,
        type: 3}
      propertyPath: spawns.Array.data[1].enemies.Array.size
      value: 1
      objectReference: {fileID: 0}
    - target: {fileID: 6532829731298936362, guid: 8fd89f9b8fcbcda4cb6f5396aa500a2d,
        type: 3}
      propertyPath: spawns.Array.data[0].enemies.Array.size
      value: 3
      objectReference: {fileID: 0}
    - target: {fileID: 6532829731298936362, guid: 8fd89f9b8fcbcda4cb6f5396aa500a2d,
        type: 3}
      propertyPath: spawns.Array.data[2].enemies.Array.size
      value: 2
      objectReference: {fileID: 0}
    - target: {fileID: 6532829731298936362, guid: 8fd89f9b8fcbcda4cb6f5396aa500a2d,
        type: 3}
      propertyPath: spawns.Array.size
      value: 4
      objectReference: {fileID: 0}
    - target: {fileID: 6532829731298936362, guid: 8fd89f9b8fcbcda4cb6f5396aa500a2d,
        type: 3}
      propertyPath: spawns.Array.data[3].enemies.Array.size
      value: 2
      objectReference: {fileID: 0}
    - target: {fileID: 6532829731298936362, guid: 8fd89f9b8fcbcda4cb6f5396aa500a2d,
        type: 3}
      propertyPath: spawns.Array.data[4].enemies.Array.size
      value: 2
      objectReference: {fileID: 0}
    - target: {fileID: 6532829731298936362, guid: 8fd89f9b8fcbcda4cb6f5396aa500a2d,
        type: 3}
      propertyPath: spawns.Array.data[1].enemies.Array.data[0]
      value: 
      objectReference: {fileID: 4212130428113852047, guid: 74150dc4505c6bb409c34e0dd8c82c64,
        type: 3}
    - target: {fileID: 6532829731298936362, guid: 8fd89f9b8fcbcda4cb6f5396aa500a2d,
        type: 3}
      propertyPath: spawns.Array.data[0].enemies.Array.data[0]
      value: 
      objectReference: {fileID: 2759823717260868281, guid: 0f0d531f317d4a941a7cbd6a4706a9d9,
        type: 3}
    - target: {fileID: 6532829731298936362, guid: 8fd89f9b8fcbcda4cb6f5396aa500a2d,
        type: 3}
      propertyPath: spawns.Array.data[1].enemies.Array.data[2]
      value: 
      objectReference: {fileID: 2759823717260868281, guid: 4ff3518a2f6853e498f89c77983249d4,
        type: 3}
    - target: {fileID: 6532829731298936362, guid: 8fd89f9b8fcbcda4cb6f5396aa500a2d,
        type: 3}
      propertyPath: spawns.Array.data[1].enemies.Array.data[1]
      value: 
      objectReference: {fileID: 4212130428113852047, guid: 9d2700a494d394241801aa89a1e74a2a,
        type: 3}
    - target: {fileID: 6532829731298936362, guid: 8fd89f9b8fcbcda4cb6f5396aa500a2d,
        type: 3}
      propertyPath: spawns.Array.data[0].enemies.Array.data[1]
      value: 
      objectReference: {fileID: 2759823717260868281, guid: 2f6f6dd286e8e1046a3f66c95129612f,
        type: 3}
    - target: {fileID: 6532829731298936362, guid: 8fd89f9b8fcbcda4cb6f5396aa500a2d,
        type: 3}
      propertyPath: spawns.Array.data[2].enemies.Array.data[1]
      value: 
      objectReference: {fileID: 4212130428113852047, guid: 9d2700a494d394241801aa89a1e74a2a,
        type: 3}
    - target: {fileID: 6532829731298936362, guid: 8fd89f9b8fcbcda4cb6f5396aa500a2d,
        type: 3}
      propertyPath: spawns.Array.data[2].enemies.Array.data[2]
      value: 
      objectReference: {fileID: 4212130428113852047, guid: 9d2700a494d394241801aa89a1e74a2a,
        type: 3}
    - target: {fileID: 6532829731298936362, guid: 8fd89f9b8fcbcda4cb6f5396aa500a2d,
        type: 3}
      propertyPath: spawns.Array.data[2].enemies.Array.data[0]
      value: 
      objectReference: {fileID: 4212130428113852047, guid: 9d2700a494d394241801aa89a1e74a2a,
        type: 3}
    - target: {fileID: 6532829731298936362, guid: 8fd89f9b8fcbcda4cb6f5396aa500a2d,
        type: 3}
      propertyPath: spawns.Array.data[1].gapRatio
      value: 0
      objectReference: {fileID: 0}
    - target: {fileID: 6532829731298936362, guid: 8fd89f9b8fcbcda4cb6f5396aa500a2d,
        type: 3}
      propertyPath: spawns.Array.data[1].gapOffset
      value: 0
      objectReference: {fileID: 0}
    - target: {fileID: 6532829731298936362, guid: 8fd89f9b8fcbcda4cb6f5396aa500a2d,
        type: 3}
      propertyPath: spawns.Array.data[2].gapOffset
      value: 1
      objectReference: {fileID: 0}
    - target: {fileID: 6532829731298936362, guid: 8fd89f9b8fcbcda4cb6f5396aa500a2d,
        type: 3}
      propertyPath: spawns.Array.data[3].gapOffset
      value: 0.5
      objectReference: {fileID: 0}
    - target: {fileID: 6532829731298936362, guid: 8fd89f9b8fcbcda4cb6f5396aa500a2d,
        type: 3}
      propertyPath: spawns.Array.data[3].enemies.Array.data[1]
      value: 
      objectReference: {fileID: 4212130428113852047, guid: 74150dc4505c6bb409c34e0dd8c82c64,
        type: 3}
    - target: {fileID: 6532829731298936362, guid: 8fd89f9b8fcbcda4cb6f5396aa500a2d,
        type: 3}
      propertyPath: spawns.Array.data[3].enemies.Array.data[2]
      value: 
      objectReference: {fileID: 2759823717260868281, guid: 4ff3518a2f6853e498f89c77983249d4,
        type: 3}
    - target: {fileID: 6532829731298936362, guid: 8fd89f9b8fcbcda4cb6f5396aa500a2d,
        type: 3}
      propertyPath: spawns.Array.data[3].enemies.Array.data[0]
      value: 
      objectReference: {fileID: 4212130428113852047, guid: 74150dc4505c6bb409c34e0dd8c82c64,
        type: 3}
    - target: {fileID: 6532829731298936362, guid: 8fd89f9b8fcbcda4cb6f5396aa500a2d,
        type: 3}
      propertyPath: spawns.Array.data[3].gapRatio
      value: 0
      objectReference: {fileID: 0}
    - target: {fileID: 6532829731298936362, guid: 8fd89f9b8fcbcda4cb6f5396aa500a2d,
        type: 3}
      propertyPath: spawns.Array.data[4].gapRatio
      value: 0.755
      objectReference: {fileID: 0}
    - target: {fileID: 6532829731298936362, guid: 8fd89f9b8fcbcda4cb6f5396aa500a2d,
        type: 3}
      propertyPath: spawns.Array.data[4].gapOffset
      value: 0
      objectReference: {fileID: 0}
    - target: {fileID: 6532829731298936362, guid: 8fd89f9b8fcbcda4cb6f5396aa500a2d,
        type: 3}
      propertyPath: spawns.Array.data[4].enemies.Array.data[0]
      value: 
      objectReference: {fileID: 2759823717260868281, guid: 4ff3518a2f6853e498f89c77983249d4,
        type: 3}
    - target: {fileID: 6532829731298936362, guid: 8fd89f9b8fcbcda4cb6f5396aa500a2d,
        type: 3}
      propertyPath: spawns.Array.data[4].enemies.Array.data[1]
      value: 
      objectReference: {fileID: 2759823717260868281, guid: 4ff3518a2f6853e498f89c77983249d4,
        type: 3}
    - target: {fileID: 6532829731298936362, guid: 8fd89f9b8fcbcda4cb6f5396aa500a2d,
        type: 3}
      propertyPath: spawns.Array.data[2].enemies.Array.data[3]
      value: 
      objectReference: {fileID: 4212130428113852047, guid: 9d2700a494d394241801aa89a1e74a2a,
        type: 3}
    - target: {fileID: 6532829731298936362, guid: 8fd89f9b8fcbcda4cb6f5396aa500a2d,
        type: 3}
      propertyPath: spawns.Array.data[0].enemies.Array.data[2]
      value: 
      objectReference: {fileID: 2759823717260868281, guid: 2f6f6dd286e8e1046a3f66c95129612f,
        type: 3}
    - target: {fileID: 6532829731298936363, guid: 8fd89f9b8fcbcda4cb6f5396aa500a2d,
        type: 3}
      propertyPath: m_LocalPosition.x
      value: -1.429646
      objectReference: {fileID: 0}
    - target: {fileID: 6532829731298936363, guid: 8fd89f9b8fcbcda4cb6f5396aa500a2d,
        type: 3}
      propertyPath: m_LocalPosition.y
      value: 1.153786
      objectReference: {fileID: 0}
    - target: {fileID: 6532829731298936363, guid: 8fd89f9b8fcbcda4cb6f5396aa500a2d,
        type: 3}
      propertyPath: m_LocalPosition.z
      value: 0.06762695
      objectReference: {fileID: 0}
    - target: {fileID: 6532829731298936363, guid: 8fd89f9b8fcbcda4cb6f5396aa500a2d,
        type: 3}
      propertyPath: m_LocalRotation.x
      value: 0
      objectReference: {fileID: 0}
    - target: {fileID: 6532829731298936363, guid: 8fd89f9b8fcbcda4cb6f5396aa500a2d,
        type: 3}
      propertyPath: m_LocalRotation.y
      value: 0
      objectReference: {fileID: 0}
    - target: {fileID: 6532829731298936363, guid: 8fd89f9b8fcbcda4cb6f5396aa500a2d,
        type: 3}
      propertyPath: m_LocalRotation.z
      value: 0
      objectReference: {fileID: 0}
    - target: {fileID: 6532829731298936363, guid: 8fd89f9b8fcbcda4cb6f5396aa500a2d,
        type: 3}
      propertyPath: m_LocalRotation.w
      value: 1
      objectReference: {fileID: 0}
    - target: {fileID: 6532829731298936363, guid: 8fd89f9b8fcbcda4cb6f5396aa500a2d,
        type: 3}
      propertyPath: m_RootOrder
      value: 3
      objectReference: {fileID: 0}
    - target: {fileID: 6532829731298936363, guid: 8fd89f9b8fcbcda4cb6f5396aa500a2d,
        type: 3}
      propertyPath: m_LocalEulerAnglesHint.x
      value: 0
      objectReference: {fileID: 0}
    - target: {fileID: 6532829731298936363, guid: 8fd89f9b8fcbcda4cb6f5396aa500a2d,
        type: 3}
      propertyPath: m_LocalEulerAnglesHint.y
      value: 0
      objectReference: {fileID: 0}
    - target: {fileID: 6532829731298936363, guid: 8fd89f9b8fcbcda4cb6f5396aa500a2d,
        type: 3}
      propertyPath: m_LocalEulerAnglesHint.z
      value: 0
      objectReference: {fileID: 0}
    m_RemovedComponents: []
  m_SourcePrefab: {fileID: 100100000, guid: 8fd89f9b8fcbcda4cb6f5396aa500a2d, type: 3}
--- !u!1001 &149696307643131016
PrefabInstance:
  m_ObjectHideFlags: 0
  serializedVersion: 2
  m_Modification:
    m_TransformParent: {fileID: 0}
    m_Modifications:
    - target: {fileID: 149696307066501159, guid: aab9ee932268dcf4ea1c02bc253c7542,
        type: 3}
      propertyPath: m_AnchorMin.y
      value: 0
      objectReference: {fileID: 0}
    - target: {fileID: 149696307066501159, guid: aab9ee932268dcf4ea1c02bc253c7542,
        type: 3}
      propertyPath: m_AnchorMax.y
      value: 0
      objectReference: {fileID: 0}
    - target: {fileID: 149696307066501159, guid: aab9ee932268dcf4ea1c02bc253c7542,
        type: 3}
      propertyPath: m_AnchoredPosition.x
      value: 0
      objectReference: {fileID: 0}
    - target: {fileID: 149696307066501159, guid: aab9ee932268dcf4ea1c02bc253c7542,
        type: 3}
      propertyPath: m_AnchoredPosition.y
      value: 0
      objectReference: {fileID: 0}
    - target: {fileID: 149696307066501159, guid: aab9ee932268dcf4ea1c02bc253c7542,
        type: 3}
      propertyPath: m_SizeDelta.x
      value: 0
      objectReference: {fileID: 0}
    - target: {fileID: 149696307066501159, guid: aab9ee932268dcf4ea1c02bc253c7542,
        type: 3}
      propertyPath: m_SizeDelta.y
      value: 0
      objectReference: {fileID: 0}
    - target: {fileID: 149696308434029107, guid: aab9ee932268dcf4ea1c02bc253c7542,
        type: 3}
      propertyPath: m_Name
      value: GameplayCommon
      objectReference: {fileID: 0}
    - target: {fileID: 149696308434029108, guid: aab9ee932268dcf4ea1c02bc253c7542,
        type: 3}
      propertyPath: m_LocalPosition.x
      value: 0
      objectReference: {fileID: 0}
    - target: {fileID: 149696308434029108, guid: aab9ee932268dcf4ea1c02bc253c7542,
        type: 3}
      propertyPath: m_LocalPosition.y
      value: 0
      objectReference: {fileID: 0}
    - target: {fileID: 149696308434029108, guid: aab9ee932268dcf4ea1c02bc253c7542,
        type: 3}
      propertyPath: m_LocalPosition.z
      value: 0
      objectReference: {fileID: 0}
    - target: {fileID: 149696308434029108, guid: aab9ee932268dcf4ea1c02bc253c7542,
        type: 3}
      propertyPath: m_LocalRotation.x
      value: 0
      objectReference: {fileID: 0}
    - target: {fileID: 149696308434029108, guid: aab9ee932268dcf4ea1c02bc253c7542,
        type: 3}
      propertyPath: m_LocalRotation.y
      value: 0
      objectReference: {fileID: 0}
    - target: {fileID: 149696308434029108, guid: aab9ee932268dcf4ea1c02bc253c7542,
        type: 3}
      propertyPath: m_LocalRotation.z
      value: 0
      objectReference: {fileID: 0}
    - target: {fileID: 149696308434029108, guid: aab9ee932268dcf4ea1c02bc253c7542,
        type: 3}
      propertyPath: m_LocalRotation.w
      value: 1
      objectReference: {fileID: 0}
    - target: {fileID: 149696308434029108, guid: aab9ee932268dcf4ea1c02bc253c7542,
        type: 3}
      propertyPath: m_RootOrder
      value: 1
      objectReference: {fileID: 0}
    - target: {fileID: 149696308434029108, guid: aab9ee932268dcf4ea1c02bc253c7542,
        type: 3}
      propertyPath: m_LocalEulerAnglesHint.x
      value: 0
      objectReference: {fileID: 0}
    - target: {fileID: 149696308434029108, guid: aab9ee932268dcf4ea1c02bc253c7542,
        type: 3}
      propertyPath: m_LocalEulerAnglesHint.y
      value: 0
      objectReference: {fileID: 0}
    - target: {fileID: 149696308434029108, guid: aab9ee932268dcf4ea1c02bc253c7542,
        type: 3}
      propertyPath: m_LocalEulerAnglesHint.z
      value: 0
      objectReference: {fileID: 0}
    - target: {fileID: 8059253710073320280, guid: aab9ee932268dcf4ea1c02bc253c7542,
        type: 3}
      propertyPath: m_AnchorMin.y
      value: 0
      objectReference: {fileID: 0}
    - target: {fileID: 8059253710073320280, guid: aab9ee932268dcf4ea1c02bc253c7542,
        type: 3}
      propertyPath: m_AnchorMax.y
      value: 0
      objectReference: {fileID: 0}
    - target: {fileID: 8059253710073320280, guid: aab9ee932268dcf4ea1c02bc253c7542,
        type: 3}
      propertyPath: m_AnchoredPosition.x
      value: 0
      objectReference: {fileID: 0}
    - target: {fileID: 8059253710073320280, guid: aab9ee932268dcf4ea1c02bc253c7542,
        type: 3}
      propertyPath: m_AnchoredPosition.y
      value: 0
      objectReference: {fileID: 0}
    - target: {fileID: 8059253710073320280, guid: aab9ee932268dcf4ea1c02bc253c7542,
        type: 3}
      propertyPath: m_SizeDelta.x
      value: 0
      objectReference: {fileID: 0}
    - target: {fileID: 8059253710073320280, guid: aab9ee932268dcf4ea1c02bc253c7542,
        type: 3}
      propertyPath: m_SizeDelta.y
      value: 0
      objectReference: {fileID: 0}
    - target: {fileID: 8059253711285062791, guid: aab9ee932268dcf4ea1c02bc253c7542,
        type: 3}
      propertyPath: m_AnchorMin.y
      value: 0
      objectReference: {fileID: 0}
    - target: {fileID: 8059253711285062791, guid: aab9ee932268dcf4ea1c02bc253c7542,
        type: 3}
      propertyPath: m_AnchorMax.y
      value: 0
      objectReference: {fileID: 0}
    - target: {fileID: 8059253711285062791, guid: aab9ee932268dcf4ea1c02bc253c7542,
        type: 3}
      propertyPath: m_AnchoredPosition.x
      value: 0
      objectReference: {fileID: 0}
    - target: {fileID: 8059253711285062791, guid: aab9ee932268dcf4ea1c02bc253c7542,
        type: 3}
      propertyPath: m_AnchoredPosition.y
      value: 0
      objectReference: {fileID: 0}
    - target: {fileID: 8059253711285062791, guid: aab9ee932268dcf4ea1c02bc253c7542,
        type: 3}
      propertyPath: m_SizeDelta.x
      value: 0
      objectReference: {fileID: 0}
    - target: {fileID: 8059253711285062791, guid: aab9ee932268dcf4ea1c02bc253c7542,
        type: 3}
      propertyPath: m_SizeDelta.y
      value: 0
      objectReference: {fileID: 0}
    m_RemovedComponents: []
  m_SourcePrefab: {fileID: 100100000, guid: aab9ee932268dcf4ea1c02bc253c7542, type: 3}
--- !u!1001 &5296355295579511717
PrefabInstance:
  m_ObjectHideFlags: 0
  serializedVersion: 2
  m_Modification:
    m_TransformParent: {fileID: 0}
    m_Modifications:
    - target: {fileID: 5296355293920620072, guid: 4dac7e47af419b14b8db82c37ec8b362,
        type: 3}
      propertyPath: m_Name
      value: CamVironment
      objectReference: {fileID: 0}
    - target: {fileID: 5296355293920620075, guid: 4dac7e47af419b14b8db82c37ec8b362,
        type: 3}
      propertyPath: m_LocalPosition.x
      value: 0
      objectReference: {fileID: 0}
    - target: {fileID: 5296355293920620075, guid: 4dac7e47af419b14b8db82c37ec8b362,
        type: 3}
      propertyPath: m_LocalPosition.y
      value: 1.3
      objectReference: {fileID: 0}
    - target: {fileID: 5296355293920620075, guid: 4dac7e47af419b14b8db82c37ec8b362,
        type: 3}
      propertyPath: m_LocalPosition.z
      value: -23.4
      objectReference: {fileID: 0}
    - target: {fileID: 5296355293920620075, guid: 4dac7e47af419b14b8db82c37ec8b362,
        type: 3}
      propertyPath: m_LocalRotation.x
      value: 0
      objectReference: {fileID: 0}
    - target: {fileID: 5296355293920620075, guid: 4dac7e47af419b14b8db82c37ec8b362,
        type: 3}
      propertyPath: m_LocalRotation.y
      value: 0
      objectReference: {fileID: 0}
    - target: {fileID: 5296355293920620075, guid: 4dac7e47af419b14b8db82c37ec8b362,
        type: 3}
      propertyPath: m_LocalRotation.z
      value: 0
      objectReference: {fileID: 0}
    - target: {fileID: 5296355293920620075, guid: 4dac7e47af419b14b8db82c37ec8b362,
        type: 3}
      propertyPath: m_LocalRotation.w
      value: 1
      objectReference: {fileID: 0}
    - target: {fileID: 5296355293920620075, guid: 4dac7e47af419b14b8db82c37ec8b362,
        type: 3}
      propertyPath: m_RootOrder
      value: 0
      objectReference: {fileID: 0}
    - target: {fileID: 5296355293920620075, guid: 4dac7e47af419b14b8db82c37ec8b362,
        type: 3}
      propertyPath: m_LocalEulerAnglesHint.x
      value: 0
      objectReference: {fileID: 0}
    - target: {fileID: 5296355293920620075, guid: 4dac7e47af419b14b8db82c37ec8b362,
        type: 3}
      propertyPath: m_LocalEulerAnglesHint.y
      value: 0
      objectReference: {fileID: 0}
    - target: {fileID: 5296355293920620075, guid: 4dac7e47af419b14b8db82c37ec8b362,
        type: 3}
      propertyPath: m_LocalEulerAnglesHint.z
      value: 0
      objectReference: {fileID: 0}
    m_RemovedComponents: []
  m_SourcePrefab: {fileID: 100100000, guid: 4dac7e47af419b14b8db82c37ec8b362, type: 3}
--- !u!1001 &6151882361048582164
PrefabInstance:
  m_ObjectHideFlags: 0
  serializedVersion: 2
  m_Modification:
    m_TransformParent: {fileID: 0}
    m_Modifications:
    - target: {fileID: 6151882360822667211, guid: 5b4cc2f867159334ba0647b2bed9e1fd,
        type: 3}
      propertyPath: m_Name
      value: LevelManager
      objectReference: {fileID: 0}
    - target: {fileID: 6151882360822667253, guid: 5b4cc2f867159334ba0647b2bed9e1fd,
        type: 3}
      propertyPath: m_LocalPosition.x
      value: 0
      objectReference: {fileID: 0}
    - target: {fileID: 6151882360822667253, guid: 5b4cc2f867159334ba0647b2bed9e1fd,
        type: 3}
      propertyPath: m_LocalPosition.y
      value: 0
      objectReference: {fileID: 0}
    - target: {fileID: 6151882360822667253, guid: 5b4cc2f867159334ba0647b2bed9e1fd,
        type: 3}
      propertyPath: m_LocalPosition.z
      value: 0
      objectReference: {fileID: 0}
    - target: {fileID: 6151882360822667253, guid: 5b4cc2f867159334ba0647b2bed9e1fd,
        type: 3}
      propertyPath: m_LocalRotation.x
      value: 0
      objectReference: {fileID: 0}
    - target: {fileID: 6151882360822667253, guid: 5b4cc2f867159334ba0647b2bed9e1fd,
        type: 3}
      propertyPath: m_LocalRotation.y
      value: 0
      objectReference: {fileID: 0}
    - target: {fileID: 6151882360822667253, guid: 5b4cc2f867159334ba0647b2bed9e1fd,
        type: 3}
      propertyPath: m_LocalRotation.z
      value: 0
      objectReference: {fileID: 0}
    - target: {fileID: 6151882360822667253, guid: 5b4cc2f867159334ba0647b2bed9e1fd,
        type: 3}
      propertyPath: m_LocalRotation.w
      value: 1
      objectReference: {fileID: 0}
    - target: {fileID: 6151882360822667253, guid: 5b4cc2f867159334ba0647b2bed9e1fd,
        type: 3}
      propertyPath: m_RootOrder
      value: 2
      objectReference: {fileID: 0}
    - target: {fileID: 6151882360822667253, guid: 5b4cc2f867159334ba0647b2bed9e1fd,
        type: 3}
      propertyPath: m_LocalEulerAnglesHint.x
      value: 0
      objectReference: {fileID: 0}
    - target: {fileID: 6151882360822667253, guid: 5b4cc2f867159334ba0647b2bed9e1fd,
        type: 3}
      propertyPath: m_LocalEulerAnglesHint.y
      value: 0
      objectReference: {fileID: 0}
    - target: {fileID: 6151882360822667253, guid: 5b4cc2f867159334ba0647b2bed9e1fd,
        type: 3}
      propertyPath: m_LocalEulerAnglesHint.z
      value: 0
      objectReference: {fileID: 0}
    m_RemovedComponents: []
  m_SourcePrefab: {fileID: 100100000, guid: 5b4cc2f867159334ba0647b2bed9e1fd, type: 3}
